EESchema Schematic File Version 4
EELAYER 30 0
EELAYER END
$Descr A4 11693 8268
encoding utf-8
Sheet 1 1
Title ""
Date "lun. 30 mars 2015"
Rev ""
Comp ""
Comment1 ""
Comment2 ""
Comment3 ""
Comment4 ""
$EndDescr
Text Label 8950 1450 1    60   ~ 0
Vin
Text Label 9350 1450 1    60   ~ 0
IOREF
Text Label 8900 2500 0    60   ~ 0
A0
Text Label 8900 2600 0    60   ~ 0
A1
Text Label 8900 2700 0    60   ~ 0
A2
Text Label 8900 2800 0    60   ~ 0
A3
Text Label 8900 2900 0    60   ~ 0
A4(SDA)
Text Label 8900 3000 0    60   ~ 0
A5(SCL)
Text Label 10550 3000 0    60   ~ 0
0(Rx)
Text Label 10550 2800 0    60   ~ 0
2
Text Label 10550 2900 0    60   ~ 0
1(Tx)
Text Label 10550 2700 0    60   ~ 0
3(**)
Text Label 10550 2600 0    60   ~ 0
4
Text Label 10550 2500 0    60   ~ 0
5(**)
Text Label 10550 2400 0    60   ~ 0
6(**)
Text Label 10550 2300 0    60   ~ 0
7
Text Label 10550 2100 0    60   ~ 0
8
Text Label 10550 2000 0    60   ~ 0
9(**)
Text Label 10550 1900 0    60   ~ 0
10(**/SS)
Text Label 10550 1800 0    60   ~ 0
11(**/MOSI)
Text Label 10550 1700 0    60   ~ 0
12(MISO)
Text Label 10550 1600 0    60   ~ 0
13(SCK)
Text Label 10550 1400 0    60   ~ 0
AREF
NoConn ~ 9400 1600
Text Label 10550 1300 0    60   ~ 0
A4(SDA)
Text Label 10550 1200 0    60   ~ 0
A5(SCL)
Text Notes 8550 750  0    60   ~ 0
Shield for Arduino that uses\nthe same pin disposition\nlike "Uno" board Rev 3.
$Comp
L Connector_Generic:Conn_01x08 P1
U 1 1 56D70129
P 9600 1900
F 0 "P1" H 9600 2350 50  0000 C CNN
F 1 "Power" V 9700 1900 50  0000 C CNN
F 2 "Socket_Arduino_Uno:Socket_Strip_Arduino_1x08" V 9750 1900 20  0000 C CNN
F 3 "" H 9600 1900 50  0000 C CNN
	1    9600 1900
	1    0    0    -1  
$EndComp
Text Label 8650 1800 0    60   ~ 0
Reset
$Comp
L power:+3.3V #PWR01
U 1 1 56D70538
P 9150 1450
F 0 "#PWR01" H 9150 1300 50  0001 C CNN
F 1 "+3.3V" V 9150 1700 50  0000 C CNN
F 2 "" H 9150 1450 50  0000 C CNN
F 3 "" H 9150 1450 50  0000 C CNN
	1    9150 1450
	1    0    0    -1  
$EndComp
$Comp
L power:+5V #PWR02
U 1 1 56D707BB
P 9050 1350
F 0 "#PWR02" H 9050 1200 50  0001 C CNN
F 1 "+5V" V 9050 1550 50  0000 C CNN
F 2 "" H 9050 1350 50  0000 C CNN
F 3 "" H 9050 1350 50  0000 C CNN
	1    9050 1350
	1    0    0    -1  
$EndComp
$Comp
L power:GND #PWR03
U 1 1 56D70CC2
P 9300 3150
F 0 "#PWR03" H 9300 2900 50  0001 C CNN
F 1 "GND" H 9300 3000 50  0000 C CNN
F 2 "" H 9300 3150 50  0000 C CNN
F 3 "" H 9300 3150 50  0000 C CNN
	1    9300 3150
	1    0    0    -1  
$EndComp
$Comp
L power:GND #PWR04
U 1 1 56D70CFF
P 10300 3150
F 0 "#PWR04" H 10300 2900 50  0001 C CNN
F 1 "GND" H 10300 3000 50  0000 C CNN
F 2 "" H 10300 3150 50  0000 C CNN
F 3 "" H 10300 3150 50  0000 C CNN
	1    10300 3150
	1    0    0    -1  
$EndComp
$Comp
L Connector_Generic:Conn_01x06 P2
U 1 1 56D70DD8
P 9600 2700
F 0 "P2" H 9600 2300 50  0000 C CNN
F 1 "Analog" V 9700 2700 50  0000 C CNN
F 2 "Socket_Arduino_Uno:Socket_Strip_Arduino_1x06" V 9750 2750 20  0000 C CNN
F 3 "" H 9600 2700 50  0000 C CNN
	1    9600 2700
	1    0    0    -1  
$EndComp
$Comp
L Connector_Generic:Conn_01x08 P4
U 1 1 56D7164F
P 10000 2600
F 0 "P4" H 10000 2100 50  0000 C CNN
F 1 "Digital" V 10100 2600 50  0000 C CNN
F 2 "Socket_Arduino_Uno:Socket_Strip_Arduino_1x08" V 10150 2550 20  0000 C CNN
F 3 "" H 10000 2600 50  0000 C CNN
	1    10000 2600
	-1   0    0    -1  
$EndComp
Wire Notes Line
	8525 825  9925 825 
Wire Notes Line
	9925 825  9925 475 
Wire Wire Line
	9350 1450 9350 1700
Wire Wire Line
	9350 1700 9400 1700
Wire Wire Line
	9400 1900 9150 1900
Wire Wire Line
	9400 2000 9050 2000
Wire Wire Line
	9400 2300 8950 2300
Wire Wire Line
	9400 2100 9300 2100
Wire Wire Line
	9400 2200 9300 2200
Connection ~ 9300 2200
Wire Wire Line
	8950 2300 8950 1600
Wire Wire Line
	9050 2000 9050 1350
Wire Wire Line
	9150 1900 9150 1550
Wire Wire Line
	9400 2500 8900 2500
Wire Wire Line
	9400 2600 8900 2600
Wire Wire Line
	9400 2700 8900 2700
Wire Wire Line
	9400 2800 8900 2800
Wire Wire Line
	9400 2900 8900 2900
Wire Wire Line
	9400 3000 8900 3000
$Comp
L Connector_Generic:Conn_01x10 P3
U 1 1 56D721E0
P 10000 1600
F 0 "P3" H 10000 2150 50  0000 C CNN
F 1 "Digital" V 10100 1600 50  0000 C CNN
F 2 "Socket_Arduino_Uno:Socket_Strip_Arduino_1x10" V 10150 1600 20  0000 C CNN
F 3 "" H 10000 1600 50  0000 C CNN
	1    10000 1600
	-1   0    0    -1  
$EndComp
Wire Wire Line
	10200 2100 10550 2100
Wire Wire Line
	10200 2000 10550 2000
Wire Wire Line
	10200 1900 10550 1900
Wire Wire Line
	10200 1800 10550 1800
Wire Wire Line
	10200 1700 10550 1700
Wire Wire Line
	10200 1600 10550 1600
Wire Wire Line
	10200 1300 10550 1300
Wire Wire Line
	10200 1200 10550 1200
Wire Wire Line
	10200 3000 10550 3000
Wire Wire Line
	10200 2900 10550 2900
Wire Wire Line
	10200 2800 10550 2800
Wire Wire Line
	10200 2700 10550 2700
Wire Wire Line
	10200 2600 10550 2600
Wire Wire Line
	10200 2500 10550 2500
Wire Wire Line
	10200 2400 10550 2400
Wire Wire Line
	10200 2300 10550 2300
Wire Wire Line
	10200 1500 10300 1500
Wire Wire Line
	10300 1500 10300 3150
Wire Wire Line
	9300 2100 9300 2200
Wire Wire Line
	9300 2200 9300 3150
Wire Wire Line
	9400 1800 8650 1800
Text Notes 9700 1600 0    60   ~ 0
1
$Comp
L Amplifier_Operational:MCP6002-xP U2
U 1 1 64201733
P 2850 2050
F 0 "U2" H 2850 2417 50  0000 C CNN
F 1 "MCP6002-xP" H 2850 2326 50  0000 C CNN
F 2 "Package_DIP:DIP-8_W7.62mm_LongPads" H 2850 2050 50  0001 C CNN
F 3 "http://ww1.microchip.com/downloads/en/DeviceDoc/21733j.pdf" H 2850 2050 50  0001 C CNN
	1    2850 2050
	1    0    0    -1  
$EndComp
$Comp
L Amplifier_Operational:MCP6002-xP U2
U 2 1 64202958
P 2700 4750
F 0 "U2" H 2700 5117 50  0000 C CNN
F 1 "MCP6002-xP" H 2700 5026 50  0000 C CNN
F 2 "Package_DIP:DIP-8_W7.62mm_LongPads" H 2700 4750 50  0001 C CNN
F 3 "http://ww1.microchip.com/downloads/en/DeviceDoc/21733j.pdf" H 2700 4750 50  0001 C CNN
	2    2700 4750
	1    0    0    1   
$EndComp
$Comp
L Amplifier_Operational:MCP6002-xP U2
U 3 1 64204A00
P 6350 6850
F 0 "U2" H 6308 6896 50  0000 L CNN
F 1 "MCP6002-xP" H 6308 6805 50  0000 L CNN
F 2 "Package_DIP:DIP-8_W7.62mm_LongPads" H 6350 6850 50  0001 C CNN
F 3 "http://ww1.microchip.com/downloads/en/DeviceDoc/21733j.pdf" H 6350 6850 50  0001 C CNN
	3    6350 6850
	1    0    0    -1  
$EndComp
$Comp
L Device:R R2
U 1 1 64207C83
P 1300 1650
F 0 "R2" H 1370 1696 50  0000 L CNN
F 1 "10K" H 1370 1605 50  0000 L CNN
F 2 "Resistor_THT:R_Axial_DIN0207_L6.3mm_D2.5mm_P7.62mm_Horizontal" V 1230 1650 50  0001 C CNN
F 3 "~" H 1300 1650 50  0001 C CNN
	1    1300 1650
	1    0    0    -1  
$EndComp
$Comp
L Device:R R3
U 1 1 64208191
P 1300 2200
F 0 "R3" H 1370 2246 50  0000 L CNN
F 1 "1K" H 1370 2155 50  0000 L CNN
F 2 "Resistor_THT:R_Axial_DIN0207_L6.3mm_D2.5mm_P7.62mm_Horizontal" V 1230 2200 50  0001 C CNN
F 3 "~" H 1300 2200 50  0001 C CNN
	1    1300 2200
	1    0    0    -1  
$EndComp
$Comp
L Device:R R7
U 1 1 64208A4C
P 4050 2550
F 0 "R7" H 4120 2596 50  0000 L CNN
F 1 "10R" H 4120 2505 50  0000 L CNN
F 2 "Resistor_THT:R_Axial_DIN0207_L6.3mm_D2.5mm_P7.62mm_Horizontal" V 3980 2550 50  0001 C CNN
F 3 "~" H 4050 2550 50  0001 C CNN
	1    4050 2550
	1    0    0    -1  
$EndComp
$Comp
L Regulator_Linear:AMS1117-3.3 U3
U 1 1 6420944E
P 9800 5700
F 0 "U3" H 9800 5942 50  0000 C CNN
F 1 "AMS1117-3.3" H 9800 5851 50  0000 C CNN
F 2 "Package_TO_SOT_SMD:SOT-223-3_TabPin2" H 9800 5900 50  0001 C CNN
F 3 "http://www.advanced-monolithic.com/pdf/ds1117.pdf" H 9900 5450 50  0001 C CNN
	1    9800 5700
	1    0    0    -1  
$EndComp
$Comp
L Device:R_POT_TRIM RV1
U 1 1 64214B8D
P 1300 2650
F 0 "RV1" H 1230 2696 50  0000 R CNN
F 1 "500R" H 1230 2605 50  0000 R CNN
F 2 "Potentiometer_THT:Potentiometer_Bourns_3296Y_Vertical" H 1300 2650 50  0001 C CNN
F 3 "~" H 1300 2650 50  0001 C CNN
	1    1300 2650
	1    0    0    -1  
$EndComp
$Comp
L Device:R_POT_TRIM RV2
U 1 1 642153FF
P 2500 4300
F 0 "RV2" H 2430 4346 50  0000 R CNN
F 1 "PD_TRIM" V 2400 5200 50  0000 R CNN
F 2 "Potentiometer_THT:Potentiometer_Bourns_3296Y_Vertical" H 2500 4300 50  0001 C CNN
F 3 "~" H 2500 4300 50  0001 C CNN
	1    2500 4300
	0    -1   1    0   
$EndComp
$Comp
L Device:R R4
U 1 1 64216284
P 3150 4300
F 0 "R4" H 3220 4346 50  0000 L CNN
F 1 "R" H 3220 4255 50  0000 L CNN
F 2 "Resistor_THT:R_Axial_DIN0207_L6.3mm_D2.5mm_P7.62mm_Horizontal" V 3080 4300 50  0001 C CNN
F 3 "~" H 3150 4300 50  0001 C CNN
	1    3150 4300
	0    -1   -1   0   
$EndComp
$Comp
L Transistor_BJT:2N3904 Q1
U 1 1 6422419A
P 3950 2050
F 0 "Q1" H 4140 2096 50  0000 L CNN
F 1 "2N3904" H 4140 2005 50  0000 L CNN
F 2 "Package_TO_SOT_THT:TO-92_Inline" H 4150 1975 50  0001 L CIN
F 3 "https://www.onsemi.com/pub/Collateral/2N3903-D.PDF" H 3950 2050 50  0001 L CNN
	1    3950 2050
	1    0    0    -1  
$EndComp
$Comp
L Device:R_Small R6
U 1 1 64233082
P 3450 2050
F 0 "R6" V 3254 2050 50  0000 C CNN
F 1 "0R" V 3345 2050 50  0000 C CNN
F 2 "Resistor_THT:R_Axial_DIN0207_L6.3mm_D2.5mm_P7.62mm_Horizontal" H 3450 2050 50  0001 C CNN
F 3 "~" H 3450 2050 50  0001 C CNN
	1    3450 2050
	0    1    1    0   
$EndComp
Wire Wire Line
	3150 2050 3350 2050
Wire Wire Line
	3550 2050 3750 2050
$Comp
L power:GND #PWR014
U 1 1 642389FD
P 4050 2950
F 0 "#PWR014" H 4050 2700 50  0001 C CNN
F 1 "GND" H 4055 2777 50  0000 C CNN
F 2 "" H 4050 2950 50  0001 C CNN
F 3 "" H 4050 2950 50  0001 C CNN
	1    4050 2950
	1    0    0    -1  
$EndComp
Wire Wire Line
	4050 2700 4050 2950
Wire Wire Line
	1300 1800 1300 1950
Wire Wire Line
	1300 2350 1300 2500
$Comp
L power:GND #PWR08
U 1 1 6424BCC5
P 1300 3050
F 0 "#PWR08" H 1300 2800 50  0001 C CNN
F 1 "GND" H 1305 2877 50  0000 C CNN
F 2 "" H 1300 3050 50  0001 C CNN
F 3 "" H 1300 3050 50  0001 C CNN
	1    1300 3050
	1    0    0    -1  
$EndComp
Wire Wire Line
	1300 2800 1300 2900
Connection ~ 1300 1950
Wire Wire Line
	1300 1950 1300 2050
Wire Wire Line
	4050 2350 2250 2350
Wire Wire Line
	2250 2350 2250 2150
Wire Wire Line
	2250 2150 2550 2150
Connection ~ 4050 2350
Wire Wire Line
	4050 2350 4050 2400
Wire Wire Line
	4050 1850 4050 1550
$Comp
L power:+5V #PWR013
U 1 1 64254E39
P 4050 1200
F 0 "#PWR013" H 4050 1050 50  0001 C CNN
F 1 "+5V" V 4050 1400 50  0000 C CNN
F 2 "" H 4050 1200 50  0000 C CNN
F 3 "" H 4050 1200 50  0000 C CNN
	1    4050 1200
	1    0    0    -1  
$EndComp
Wire Wire Line
	4050 1200 4050 1300
$Comp
L power:+5V #PWR017
U 1 1 6425A080
P 6250 6400
F 0 "#PWR017" H 6250 6250 50  0001 C CNN
F 1 "+5V" V 6250 6600 50  0000 C CNN
F 2 "" H 6250 6400 50  0000 C CNN
F 3 "" H 6250 6400 50  0000 C CNN
	1    6250 6400
	1    0    0    -1  
$EndComp
Wire Wire Line
	6250 6400 6250 6550
Wire Wire Line
	1300 1950 1900 1950
Wire Wire Line
	1300 2900 1550 2900
Wire Wire Line
	1550 2900 1550 2650
Wire Wire Line
	1550 2650 1450 2650
Connection ~ 1300 2900
Wire Wire Line
	1300 2900 1300 3050
$Comp
L power:GND #PWR018
U 1 1 642782DE
P 6250 7300
F 0 "#PWR018" H 6250 7050 50  0001 C CNN
F 1 "GND" H 6255 7127 50  0000 C CNN
F 2 "" H 6250 7300 50  0001 C CNN
F 3 "" H 6250 7300 50  0001 C CNN
	1    6250 7300
	1    0    0    -1  
$EndComp
Wire Wire Line
	6250 7150 6250 7250
$Comp
L power:GND #PWR09
U 1 1 6428CFDC
P 1800 5250
F 0 "#PWR09" H 1800 5000 50  0001 C CNN
F 1 "GND" H 1805 5077 50  0000 C CNN
F 2 "" H 1800 5250 50  0001 C CNN
F 3 "" H 1800 5250 50  0001 C CNN
	1    1800 5250
	1    0    0    -1  
$EndComp
$Comp
L Device:D_Photo D1
U 1 1 6429170D
P 1800 5000
F 0 "D1" V 1796 4920 50  0000 R CNN
F 1 "DP" V 1705 4920 50  0000 R CNN
F 2 "LED_THT:LED_D5.0mm" H 1750 5000 50  0001 C CNN
F 3 "~" H 1750 5000 50  0001 C CNN
	1    1800 5000
	0    1    1    0   
$EndComp
$Comp
L power:GND #PWR012
U 1 1 64292273
P 2200 5250
F 0 "#PWR012" H 2200 5000 50  0001 C CNN
F 1 "GND" H 2205 5077 50  0000 C CNN
F 2 "" H 2200 5250 50  0001 C CNN
F 3 "" H 2200 5250 50  0001 C CNN
	1    2200 5250
	1    0    0    -1  
$EndComp
Wire Wire Line
	3300 4300 3450 4300
Wire Wire Line
	1800 5100 1800 5250
Wire Wire Line
	2650 4300 2800 4300
Wire Wire Line
	2800 4300 2800 4450
Connection ~ 2800 4300
Wire Wire Line
	2800 4300 3000 4300
Wire Wire Line
	2250 4300 2350 4300
Wire Wire Line
	2250 4650 2250 4300
Wire Notes Line
	11200 3450 11200 6500
$Comp
L Device:C C1
U 1 1 643138EF
P 5850 6900
F 0 "C1" H 5965 6946 50  0000 L CNN
F 1 "100nF" H 5965 6855 50  0000 L CNN
F 2 "Capacitor_THT:C_Rect_L7.2mm_W2.5mm_P5.00mm_FKS2_FKP2_MKS2_MKP2" H 5888 6750 50  0001 C CNN
F 3 "~" H 5850 6900 50  0001 C CNN
	1    5850 6900
	1    0    0    -1  
$EndComp
Wire Wire Line
	5850 6750 5850 6550
Wire Wire Line
	5850 6550 6250 6550
Connection ~ 6250 6550
Wire Wire Line
	5850 7050 5850 7250
Wire Wire Line
	5850 7250 6250 7250
Connection ~ 6250 7250
Wire Wire Line
	6250 7250 6250 7300
$Comp
L Connector:Screw_Terminal_01x02 J1
U 1 1 6431C0D8
P 4750 1450
F 0 "J1" H 4830 1442 50  0000 L CNN
F 1 "Laser" H 4830 1351 50  0000 L CNN
F 2 "LED_THT:LED_D5.0mm" H 4750 1450 50  0001 C CNN
F 3 "~" H 4750 1450 50  0001 C CNN
	1    4750 1450
	1    0    0    -1  
$EndComp
Wire Wire Line
	4050 1450 4550 1450
Wire Wire Line
	4050 1550 4550 1550
Text Notes 4450 2600 0    50   ~ 0
25mA
Text Notes 4350 2450 0    50   ~ 0
0.25V
$Comp
L Reference_Voltage:TL431LP U1
U 1 1 64348944
P 1200 7150
F 0 "U1" V 1246 7080 50  0000 R CNN
F 1 "TL431LP" V 1155 7080 50  0000 R CNN
F 2 "Package_TO_SOT_THT:TO-92_Inline" H 1200 7000 50  0001 C CIN
F 3 "http://www.ti.com/lit/ds/symlink/tl431.pdf" H 1200 7150 50  0001 C CIN
	1    1200 7150
	0    -1   -1   0   
$EndComp
Wire Wire Line
	1200 7050 1200 6900
Wire Wire Line
	1200 6900 900  6900
Wire Wire Line
	900  6900 900  7150
Wire Wire Line
	900  7150 1100 7150
$Comp
L Device:R R1
U 1 1 6434E7B0
P 1200 6650
F 0 "R1" H 1270 6696 50  0000 L CNN
F 1 "1K" H 1270 6605 50  0000 L CNN
F 2 "Resistor_THT:R_Axial_DIN0207_L6.3mm_D2.5mm_P7.62mm_Horizontal" V 1130 6650 50  0001 C CNN
F 3 "~" H 1200 6650 50  0001 C CNN
	1    1200 6650
	1    0    0    -1  
$EndComp
Wire Wire Line
	1200 6800 1200 6900
Connection ~ 1200 6900
$Comp
L power:+2V5 #PWR05
U 1 1 6435429B
P 900 6900
F 0 "#PWR05" H 900 6750 50  0001 C CNN
F 1 "+2V5" H 915 7073 50  0000 C CNN
F 2 "" H 900 6900 50  0001 C CNN
F 3 "" H 900 6900 50  0001 C CNN
	1    900  6900
	1    0    0    -1  
$EndComp
Wire Wire Line
	1200 6450 1200 6500
$Comp
L power:GND #PWR06
U 1 1 64357454
P 1200 7400
F 0 "#PWR06" H 1200 7150 50  0001 C CNN
F 1 "GND" H 1205 7227 50  0000 C CNN
F 2 "" H 1200 7400 50  0001 C CNN
F 3 "" H 1200 7400 50  0001 C CNN
	1    1200 7400
	1    0    0    -1  
$EndComp
Wire Wire Line
	1200 7250 1200 7400
Text Notes 8600 3600 0    79   ~ 16
nRF24L01+ connector
Wire Notes Line
	2150 7700 2150 5750
Text Notes 650  6100 0    79   ~ 16
Voltage ref 2.5V \n(Optional)
Text Notes 2250 5950 0    79   ~ 16
Voltage AREF select
$Comp
L Device:C_Small C3
U 1 1 6440F2B4
P 10300 5950
F 0 "C3" H 10392 5996 50  0000 L CNN
F 1 "100nF" H 10392 5905 50  0000 L CNN
F 2 "Capacitor_THT:C_Rect_L7.2mm_W2.5mm_P5.00mm_FKS2_FKP2_MKS2_MKP2" H 10300 5950 50  0001 C CNN
F 3 "~" H 10300 5950 50  0001 C CNN
	1    10300 5950
	1    0    0    -1  
$EndComp
$Comp
L Device:C_Small C2
U 1 1 6440F674
P 9250 5900
F 0 "C2" H 9342 5946 50  0000 L CNN
F 1 "100nF" H 9342 5855 50  0000 L CNN
F 2 "Capacitor_THT:C_Rect_L7.2mm_W2.5mm_P5.00mm_FKS2_FKP2_MKS2_MKP2" H 9250 5900 50  0001 C CNN
F 3 "~" H 9250 5900 50  0001 C CNN
	1    9250 5900
	1    0    0    -1  
$EndComp
$Comp
L power:GND #PWR024
U 1 1 6440FCCB
P 9800 6250
F 0 "#PWR024" H 9800 6000 50  0001 C CNN
F 1 "GND" H 9805 6077 50  0000 C CNN
F 2 "" H 9800 6250 50  0001 C CNN
F 3 "" H 9800 6250 50  0001 C CNN
	1    9800 6250
	1    0    0    -1  
$EndComp
Wire Wire Line
	9250 5800 9250 5700
Wire Wire Line
	9250 5700 9500 5700
Wire Wire Line
	10100 5700 10300 5700
Wire Wire Line
	10300 5700 10300 5850
Wire Wire Line
	9800 6000 9800 6100
Wire Wire Line
	9250 6000 9250 6100
Wire Wire Line
	9250 6100 9800 6100
Connection ~ 9800 6100
Wire Wire Line
	9800 6100 9800 6200
Wire Wire Line
	10300 6050 10300 6200
Wire Wire Line
	10300 6200 9800 6200
Connection ~ 9800 6200
Wire Wire Line
	9800 6200 9800 6250
$Comp
L power:+5V #PWR023
U 1 1 64427CB4
P 9050 5700
F 0 "#PWR023" H 9050 5550 50  0001 C CNN
F 1 "+5V" V 9050 5900 50  0000 C CNN
F 2 "" H 9050 5700 50  0000 C CNN
F 3 "" H 9050 5700 50  0000 C CNN
	1    9050 5700
	1    0    0    -1  
$EndComp
Wire Wire Line
	9250 5700 9050 5700
Connection ~ 9250 5700
Connection ~ 10300 5700
$Comp
L Connector_Generic:Conn_01x04 J2
U 1 1 644360BD
P 8150 5850
F 0 "J2" H 8230 5842 50  0000 L CNN
F 1 "LCD" H 8100 6100 50  0000 L CNN
F 2 "Connector_PinHeader_2.54mm:PinHeader_1x04_P2.54mm_Vertical" H 8150 5850 50  0001 C CNN
F 3 "~" H 8150 5850 50  0001 C CNN
	1    8150 5850
	1    0    0    1   
$EndComp
Wire Notes Line
	6950 5150 11200 5150
Wire Notes Line
	8500 500  8500 6550
Wire Notes Line
	6950 6500 11200 6500
Text Notes 7000 5300 0    79   ~ 16
LCD_connect
Text Label 3750 4750 2    60   ~ 0
A0
Wire Notes Line
	4000 3600 4000 7700
Wire Notes Line
	550  600  5300 600 
Wire Notes Line
	5300 600  5300 3600
Wire Notes Line
	550  3600 5300 3600
Wire Notes Line
	550  600  550  7700
Wire Wire Line
	7950 5650 7350 5650
Wire Wire Line
	7950 5750 7350 5750
Wire Wire Line
	7950 5950 7350 5950
Wire Notes Line
	5600 5750 5600 7700
$Comp
L Device:LED D2
U 1 1 644D50D9
P 4650 7050
F 0 "D2" V 4689 6932 50  0000 R CNN
F 1 "LED_GREEN" V 5150 7400 50  0000 R CNN
F 2 "LED_THT:LED_D5.0mm" H 4650 7050 50  0001 C CNN
F 3 "~" H 4650 7050 50  0001 C CNN
	1    4650 7050
	0    -1   -1   0   
$EndComp
$Comp
L Device:LED D3
U 1 1 644D56CF
P 5250 7050
F 0 "D3" V 5289 6932 50  0000 R CNN
F 1 "LED_RED" V 5750 7350 50  0000 R CNN
F 2 "LED_THT:LED_D5.0mm" H 5250 7050 50  0001 C CNN
F 3 "~" H 5250 7050 50  0001 C CNN
	1    5250 7050
	0    -1   -1   0   
$EndComp
$Comp
L Device:R R8
U 1 1 644D614D
P 4650 6550
F 0 "R8" H 4720 6596 50  0000 L CNN
F 1 "390R" H 4720 6505 50  0000 L CNN
F 2 "Resistor_THT:R_Axial_DIN0207_L6.3mm_D2.5mm_P7.62mm_Horizontal" V 4580 6550 50  0001 C CNN
F 3 "~" H 4650 6550 50  0001 C CNN
	1    4650 6550
	1    0    0    -1  
$EndComp
$Comp
L Device:R R9
U 1 1 644D64DA
P 5250 6550
F 0 "R9" H 5320 6596 50  0000 L CNN
F 1 "390R" H 5320 6505 50  0000 L CNN
F 2 "Resistor_THT:R_Axial_DIN0207_L6.3mm_D2.5mm_P7.62mm_Horizontal" V 5180 6550 50  0001 C CNN
F 3 "~" H 5250 6550 50  0001 C CNN
	1    5250 6550
	1    0    0    -1  
$EndComp
$Comp
L power:GND #PWR015
U 1 1 644D696C
P 4650 7350
F 0 "#PWR015" H 4650 7100 50  0001 C CNN
F 1 "GND" H 4655 7177 50  0000 C CNN
F 2 "" H 4650 7350 50  0001 C CNN
F 3 "" H 4650 7350 50  0001 C CNN
	1    4650 7350
	1    0    0    -1  
$EndComp
$Comp
L power:GND #PWR016
U 1 1 644D6E32
P 5250 7350
F 0 "#PWR016" H 5250 7100 50  0001 C CNN
F 1 "GND" H 5255 7177 50  0000 C CNN
F 2 "" H 5250 7350 50  0001 C CNN
F 3 "" H 5250 7350 50  0001 C CNN
	1    5250 7350
	1    0    0    -1  
$EndComp
Wire Wire Line
	4650 6900 4650 6700
Wire Wire Line
	4650 6150 4350 6150
Wire Wire Line
	5250 6900 5250 6700
Wire Wire Line
	5250 6150 4950 6150
Text Label 4400 6150 0    60   ~ 0
2
Text Label 5000 6150 0    60   ~ 0
3(**)
$Comp
L Device:Buzzer BZ1
U 1 1 64524686
P 7400 4550
F 0 "BZ1" H 7552 4579 50  0000 L CNN
F 1 "Buzzer" H 7552 4488 50  0000 L CNN
F 2 "Buzzer_Beeper:Buzzer_TDK_PS1240P02BT_D12.2mm_H6.5mm" V 7375 4650 50  0001 C CNN
F 3 "~" V 7375 4650 50  0001 C CNN
	1    7400 4550
	-1   0    0    -1  
$EndComp
$Comp
L Device:R R10
U 1 1 64525804
P 7500 4000
F 0 "R10" H 7570 4046 50  0000 L CNN
F 1 "R" H 7570 3955 50  0000 L CNN
F 2 "Resistor_THT:R_Axial_DIN0207_L6.3mm_D2.5mm_P7.62mm_Horizontal" V 7430 4000 50  0001 C CNN
F 3 "~" H 7500 4000 50  0001 C CNN
	1    7500 4000
	1    0    0    -1  
$EndComp
Wire Notes Line
	6950 3450 11200 3450
Wire Notes Line
	6950 3450 6950 6500
Text Notes 7050 3600 0    79   ~ 16
Buzzer (Optional)
Text Notes 4100 5950 0    79   ~ 16
Indicator LEDs
Text Notes 650  750  0    79   ~ 16
Laser Driver
Text Notes 600  3800 0    79   ~ 16
Photodiode Amplifier
Wire Wire Line
	7500 4450 7500 4300
Text Label 7200 3800 0    60   ~ 0
4
$Comp
L power:GND #PWR021
U 1 1 64588093
P 7500 4800
F 0 "#PWR021" H 7500 4550 50  0001 C CNN
F 1 "GND" H 7505 4627 50  0000 C CNN
F 2 "" H 7500 4800 50  0001 C CNN
F 3 "" H 7500 4800 50  0001 C CNN
	1    7500 4800
	1    0    0    -1  
$EndComp
Text Label 7350 5650 0    60   ~ 0
A5(SCL)
Text Label 7350 5750 0    60   ~ 0
A4(SDA)
$Comp
L power:GND #PWR020
U 1 1 645B2392
P 7350 6050
F 0 "#PWR020" H 7350 5800 50  0001 C CNN
F 1 "GND" H 7355 5877 50  0000 C CNN
F 2 "" H 7350 6050 50  0001 C CNN
F 3 "" H 7350 6050 50  0001 C CNN
	1    7350 6050
	1    0    0    -1  
$EndComp
Wire Wire Line
	7350 5950 7350 6050
Wire Wire Line
	7200 5850 7950 5850
Wire Wire Line
	10300 5700 11050 5700
Text Label 10700 5700 0    47   ~ 0
3V3EX
Text Notes 8550 5300 0    79   ~ 16
Voltage regulator 3.3V (Extra)
$Comp
L power:+5V #PWR019
U 1 1 64682369
P 7200 5750
F 0 "#PWR019" H 7200 5600 50  0001 C CNN
F 1 "+5V" V 7200 5950 50  0000 C CNN
F 2 "" H 7200 5750 50  0000 C CNN
F 3 "" H 7200 5750 50  0000 C CNN
	1    7200 5750
	1    0    0    -1  
$EndComp
Wire Wire Line
	7200 5750 7200 5850
Wire Notes Line
	550  5750 6950 5750
Wire Notes Line
	550  7700 7000 7700
$Comp
L RF:NRF24L01_Breakout U4
U 1 1 646CB30C
P 10500 4200
F 0 "U4" H 10880 4246 50  0000 L CNN
F 1 "NRF24L01_Breakout" H 9650 4750 50  0000 L CNN
F 2 "RF_Module:nRF24L01_Breakout" H 10650 4800 50  0001 L CIN
F 3 "http://www.nordicsemi.com/eng/content/download/2730/34105/file/nRF24L01_Product_Specification_v2_0.pdf" H 10500 4100 50  0001 C CNN
	1    10500 4200
	1    0    0    -1  
$EndComp
Wire Wire Line
	10000 3900 9450 3900
Wire Wire Line
	10000 4000 9450 4000
Wire Wire Line
	10000 4100 9450 4100
Wire Wire Line
	10000 4200 9450 4200
Wire Wire Line
	10000 4400 9450 4400
Wire Wire Line
	10000 4500 9450 4500
Wire Wire Line
	10500 3550 10500 3600
$Comp
L power:GND #PWR025
U 1 1 647484A2
P 10500 4900
F 0 "#PWR025" H 10500 4650 50  0001 C CNN
F 1 "GND" H 10505 4727 50  0000 C CNN
F 2 "" H 10500 4900 50  0001 C CNN
F 3 "" H 10500 4900 50  0001 C CNN
	1    10500 4900
	1    0    0    -1  
$EndComp
Wire Wire Line
	10500 4800 10500 4850
Text Label 9450 3900 0    60   ~ 0
11(**/MOSI)
Text Label 9450 4000 0    60   ~ 0
12(MISO)
Text Label 9450 4100 0    60   ~ 0
13(SCK)
Text Label 9450 4200 0    60   ~ 0
10(**/SS)
$Comp
L Device:C_Small C6
U 1 1 647D2683
P 11050 3850
F 0 "C6" H 11142 3896 50  0000 L CNN
F 1 "10uF" H 11142 3805 50  0000 L CNN
F 2 "Capacitor_THT:C_Rect_L7.2mm_W2.5mm_P5.00mm_FKS2_FKP2_MKS2_MKP2" H 11050 3850 50  0001 C CNN
F 3 "~" H 11050 3850 50  0001 C CNN
	1    11050 3850
	1    0    0    -1  
$EndComp
Wire Wire Line
	10500 3550 11050 3550
Wire Wire Line
	11050 3750 11050 3550
Connection ~ 11050 3550
$Comp
L power:GND #PWR028
U 1 1 647DF323
P 11050 4150
F 0 "#PWR028" H 11050 3900 50  0001 C CNN
F 1 "GND" H 11055 3977 50  0000 C CNN
F 2 "" H 11050 4150 50  0001 C CNN
F 3 "" H 11050 4150 50  0001 C CNN
	1    11050 4150
	1    0    0    -1  
$EndComp
Wire Wire Line
	11050 3950 11050 4150
$Comp
L Device:C_Small C4
U 1 1 647FDDD2
P 1900 2400
F 0 "C4" H 1992 2446 50  0000 L CNN
F 1 "100nF" H 1992 2355 50  0000 L CNN
F 2 "Capacitor_THT:C_Rect_L7.2mm_W2.5mm_P5.00mm_FKS2_FKP2_MKS2_MKP2" H 1900 2400 50  0001 C CNN
F 3 "~" H 1900 2400 50  0001 C CNN
	1    1900 2400
	1    0    0    -1  
$EndComp
Wire Wire Line
	1900 1950 1900 2300
Connection ~ 1900 1950
Wire Wire Line
	1900 1950 2550 1950
$Comp
L power:GND #PWR026
U 1 1 64804F0B
P 1900 3050
F 0 "#PWR026" H 1900 2800 50  0001 C CNN
F 1 "GND" H 1905 2877 50  0000 C CNN
F 2 "" H 1900 3050 50  0001 C CNN
F 3 "" H 1900 3050 50  0001 C CNN
	1    1900 3050
	1    0    0    -1  
$EndComp
Wire Wire Line
	1900 2500 1900 3050
Wire Wire Line
	7500 3800 7200 3800
Wire Wire Line
	7500 3850 7500 3800
Wire Wire Line
	7500 4650 7500 4800
$Comp
L Device:C_Small C5
U 1 1 6488BF2A
P 7900 4550
F 0 "C5" H 7992 4596 50  0000 L CNN
F 1 "100nF" H 7992 4505 50  0000 L CNN
F 2 "Capacitor_THT:C_Rect_L7.2mm_W2.5mm_P5.00mm_FKS2_FKP2_MKS2_MKP2" H 7900 4550 50  0001 C CNN
F 3 "~" H 7900 4550 50  0001 C CNN
	1    7900 4550
	1    0    0    -1  
$EndComp
Wire Wire Line
	7500 4300 7900 4300
Wire Wire Line
	7900 4300 7900 4450
Connection ~ 7500 4300
Wire Wire Line
	7500 4300 7500 4150
$Comp
L power:GND #PWR027
U 1 1 6489D017
P 7900 4850
F 0 "#PWR027" H 7900 4600 50  0001 C CNN
F 1 "GND" H 7905 4677 50  0000 C CNN
F 2 "" H 7900 4850 50  0001 C CNN
F 3 "" H 7900 4850 50  0001 C CNN
	1    7900 4850
	1    0    0    -1  
$EndComp
Wire Wire Line
	7900 4650 7900 4850
Wire Wire Line
	3750 4750 3450 4750
Connection ~ 3450 4750
Wire Wire Line
	3450 4750 3000 4750
Wire Wire Line
	2800 4450 2500 4450
Wire Wire Line
	3450 4300 3450 4750
Wire Wire Line
	2400 4650 2250 4650
Wire Wire Line
	2250 4650 1800 4650
Wire Wire Line
	1800 4650 1800 4800
Connection ~ 2250 4650
Wire Wire Line
	2200 4850 2200 5250
Wire Wire Line
	2200 4850 2400 4850
Wire Wire Line
	2250 4300 2250 3950
Wire Wire Line
	2250 3950 2750 3950
Wire Wire Line
	3450 3950 3450 4300
Connection ~ 2250 4300
Connection ~ 3450 4300
$Comp
L Device:C_Small C7
U 1 1 64AB91FF
P 2850 3950
F 0 "C7" V 3079 3950 50  0000 C CNN
F 1 "100nF" V 2988 3950 50  0000 C CNN
F 2 "Capacitor_THT:C_Rect_L7.2mm_W2.5mm_P5.00mm_FKS2_FKP2_MKS2_MKP2" H 2850 3950 50  0001 C CNN
F 3 "~" H 2850 3950 50  0001 C CNN
	1    2850 3950
	0    -1   -1   0   
$EndComp
Wire Wire Line
	2950 3950 3450 3950
Connection ~ 900  6900
$Comp
L power:+5V #PWR0101
U 1 1 64BFC02D
P 1200 6450
F 0 "#PWR0101" H 1200 6300 50  0001 C CNN
F 1 "+5V" V 1200 6650 50  0000 C CNN
F 2 "" H 1200 6450 50  0000 C CNN
F 3 "" H 1200 6450 50  0000 C CNN
	1    1200 6450
	1    0    0    -1  
$EndComp
Text Label 9450 4400 0    60   ~ 0
9(**)
Text Label 9450 4500 0    60   ~ 0
8
Wire Wire Line
	4050 2250 4050 2350
Text Label 11150 3550 0    47   ~ 0
3V3EX
Wire Wire Line
	4650 7200 4650 7350
Wire Wire Line
	5250 7200 5250 7350
Wire Wire Line
	5250 6400 5250 6150
Wire Wire Line
	4650 6400 4650 6150
$Comp
L power:+2V5 #PWR0102
U 1 1 64E7EA18
P 1200 1000
F 0 "#PWR0102" H 1200 850 50  0001 C CNN
F 1 "+2V5" V 1215 1128 50  0000 L CNN
F 2 "" H 1200 1000 50  0001 C CNN
F 3 "" H 1200 1000 50  0001 C CNN
	1    1200 1000
	0    -1   -1   0   
$EndComp
Wire Wire Line
	11050 3550 11400 3550
Wire Wire Line
	1200 1000 1300 1000
Wire Wire Line
	1300 1000 1300 1350
Wire Wire Line
	10200 1400 11100 1400
Text Label 10900 1400 0    47   ~ 0
3V3EX
$Comp
L power:PWR_FLAG #FLG0101
U 1 1 64250C04
P 3750 1200
F 0 "#FLG0101" H 3750 1275 50  0001 C CNN
F 1 "PWR_FLAG" H 3750 1373 50  0000 C CNN
F 2 "" H 3750 1200 50  0001 C CNN
F 3 "~" H 3750 1200 50  0001 C CNN
	1    3750 1200
	1    0    0    -1  
$EndComp
Wire Wire Line
	3750 1200 3750 1300
Wire Wire Line
	3750 1300 4050 1300
Connection ~ 4050 1300
Wire Wire Line
	4050 1300 4050 1450
$Comp
L power:PWR_FLAG #FLG0102
U 1 1 6425AE1C
P 10750 4850
F 0 "#FLG0102" H 10750 4925 50  0001 C CNN
F 1 "PWR_FLAG" V 10750 4978 50  0000 L CNN
F 2 "" H 10750 4850 50  0001 C CNN
F 3 "~" H 10750 4850 50  0001 C CNN
	1    10750 4850
	0    1    1    0   
$EndComp
Wire Wire Line
	10500 4850 10750 4850
Connection ~ 10500 4850
Wire Wire Line
	10500 4850 10500 4900
$Comp
L power:PWR_FLAG #FLG0103
U 1 1 6426AE82
P 1600 1250
F 0 "#FLG0103" H 1600 1325 50  0001 C CNN
F 1 "PWR_FLAG" H 1600 1423 50  0000 C CNN
F 2 "" H 1600 1250 50  0001 C CNN
F 3 "~" H 1600 1250 50  0001 C CNN
	1    1600 1250
	1    0    0    -1  
$EndComp
Wire Wire Line
	1600 1250 1600 1350
Wire Wire Line
	1600 1350 1300 1350
Connection ~ 1300 1350
Wire Wire Line
	1300 1350 1300 1500
NoConn ~ 9400 2700
NoConn ~ 9400 2800
NoConn ~ 10200 2900
NoConn ~ 10200 3000
NoConn ~ 10200 2500
NoConn ~ 10200 2400
NoConn ~ 10200 2300
$Comp
L power:PWR_FLAG #FLG0104
U 1 1 642C2AEE
P 9250 950
F 0 "#FLG0104" H 9250 1025 50  0001 C CNN
F 1 "PWR_FLAG" V 9250 1078 50  0000 L CNN
F 2 "" H 9250 950 50  0001 C CNN
F 3 "~" H 9250 950 50  0001 C CNN
	1    9250 950 
	0    1    -1   0   
$EndComp
Wire Wire Line
	9250 950  9250 1550
Wire Wire Line
	9250 1550 9150 1550
Connection ~ 9150 1550
Wire Wire Line
	9150 1550 9150 1450
$Comp
L power:PWR_FLAG #FLG0105
U 1 1 642D454C
P 8600 1600
F 0 "#FLG0105" H 8600 1675 50  0001 C CNN
F 1 "PWR_FLAG" V 8600 1727 50  0000 L CNN
F 2 "" H 8600 1600 50  0001 C CNN
F 3 "~" H 8600 1600 50  0001 C CNN
	1    8600 1600
	0    -1   1    0   
$EndComp
Wire Wire Line
	8600 1600 8950 1600
Connection ~ 8950 1600
Wire Wire Line
	8950 1600 8950 1450
$Comp
L Sensor_Temperature:DS18B20 U5
U 1 1 642DFF02
P 5500 4500
F 0 "U5" H 5270 4546 50  0000 R CNN
F 1 "DS18B20" H 5270 4455 50  0000 R CNN
F 2 "Package_TO_SOT_THT:TO-92_Inline" H 4500 4250 50  0001 C CNN
F 3 "http://datasheets.maximintegrated.com/en/ds/DS18B20.pdf" H 5350 4750 50  0001 C CNN
	1    5500 4500
	1    0    0    -1  
$EndComp
$Comp
L power:GND #PWR0103
U 1 1 642E148D
P 5500 4900
F 0 "#PWR0103" H 5500 4650 50  0001 C CNN
F 1 "GND" H 5505 4727 50  0000 C CNN
F 2 "" H 5500 4900 50  0001 C CNN
F 3 "" H 5500 4900 50  0001 C CNN
	1    5500 4900
	1    0    0    -1  
$EndComp
Wire Wire Line
	5500 4800 5500 4900
Wire Wire Line
	5800 4500 5950 4500
Text Label 6050 4500 0    60   ~ 0
A1
Wire Wire Line
	5500 3900 5500 4000
$Comp
L power:+5V #PWR0104
U 1 1 6433934D
P 5500 3900
F 0 "#PWR0104" H 5500 3750 50  0001 C CNN
F 1 "+5V" V 5500 4100 50  0000 C CNN
F 2 "" H 5500 3900 50  0000 C CNN
F 3 "" H 5500 3900 50  0000 C CNN
	1    5500 3900
	1    0    0    -1  
$EndComp
NoConn ~ 9400 1700
NoConn ~ 9400 1800
$Comp
L Device:R_Small R5
U 1 1 643EBDCF
P 5950 4200
F 0 "R5" H 6009 4246 50  0000 L CNN
F 1 "4K7" H 6009 4155 50  0000 L CNN
F 2 "" H 5950 4200 50  0001 C CNN
F 3 "~" H 5950 4200 50  0001 C CNN
	1    5950 4200
	1    0    0    -1  
$EndComp
Wire Wire Line
	5950 4500 5950 4300
Connection ~ 5950 4500
Wire Wire Line
	5950 4500 6200 4500
Wire Wire Line
	5500 4000 5950 4000
Wire Wire Line
	5950 4000 5950 4100
Connection ~ 5500 4000
Wire Wire Line
	5500 4000 5500 4200
$EndSCHEMATC
